1 10 20
100 200 125
201 210 89
900 1000 174
7398 38462 324
74929 2839 340
37749 28292 324
4103 38480 324
82910 27493 351
1038 2018 182
38201 28203 324
9472 7182 260
27 94 116
872 267 179
4921 3840 215
2826 2849 173
3837 2810 238
394 292 144
3930 29292 308
11 29999 308
9 1 20
123 1234 182
12345 1233 268
398 281 144
3298 39289 324
938 3898 238
1928 1 182
8391 198 262
3901 7391 262
3 8 17
94 29 116
348 29 144
3492 3803 238
698 8943 262
257 8925 262
9825 279 262
587 3 144
435 42 144
8 75 116
847 34 171
84 982 179
93 79842 351
284 8 128
98 3298 217
458 3 144
75 98423 351
38 97843 351
5 987 179
49 879 179
58 98 119
7 985 179
4987 34 238
458 965 179
23895 9 282
49 752 171
3487 923 217
8 39 112
89 849 171
2438 9843 262
5278 34 238
98 389 144
9 2438 183
29 382 144
529 48 144
289 82 128
1984 94 182
9825 2 262
82 942 179
2 3714 238
984 95 179
253 92 128
24 83 116
95 8734 262
23 983 179
9852 287 262
2857 4 209
3287 2 217
4 75 116
9 398 144
327 982 179
34 92 116
28 3298 217
253 43 128
1378 528 182
34928 23 311
2598 98 209
925 6 179
387 49238 324
392 3 144
895 34 179
378 42387 324
34968 235 311
597 79 144
523 8 144
659 243 145
4 3429 217
98243 23 351
3 4 8
5 25 24
54 54 113
634 34 144
4 46 112
63 54 113
65 78 116
69 96 116
74 356 144
4 4 3
8 58 113
96 87 106
568 568 106
4 365 144
253 253 110
58 58 20
53 78 116
9482 9482 154
1930 1930 25
3748 3478 238
30814 3804 308
83294 83294 183
32893 292920 443
893278 319189 525
217392 182032 386
836495 272934 509
729375 383983 509
934736 383949 525
282927 372920 441
374920 572934 470
729374 482924 509
927394 380283 525
129439 282037 443
283043 282922 265
584027 382047 470
694028 21030 509
304849 37291 443
49503 282930 443
693027 172940 509
490293 392012 449
947493 282919 525
38398 189219 383
538923 398401 470
858432 98423 525
1 999999 525
99999 999999 525
839393 293932 525
948349 732923 525
528259 914892 525
2 888888 525
3 777777 509
666666 4 509
474774 218329 449
798879 879897 525
74374 76734 325
892375 895273 370
4683 7523 262
567890 567890 85
23456 23456 101
429837 74289 449
587 427342 449
2438 498112 449
43926 417 324
728442 472842 509
397851 249383 441
294343 243893 407
897034 194307 525
278434 187430 443
189242 172932 365
243987 273443 407
983247 984327 383
294373 347822 441
74820 1648 340
198238 173288 365
78231 231898 443
439283 374918 449
128932 348203 443
83429 342087 443
853701 1238 525
498132 182371 449
348927 842307 525
528374 342 470
12398 213982 383
985 430902 449
123782 982142 525
128370 213892 383
543 654 145
592038 23940 470
184270 137022 383
5803 654283 509
281396 182397 443
48912 21398 324
328947 18273 443
489327 5438 449
429837 34827 449
342897 13275 443
123869 21839 354
123798 124978 318
587940 457283 470
432896 314896 449
293865 194296 443
53097 483297 449
271835 13289 443
18239 532980 470
289563 189623 443
34982 84237 351
341961 832189 509
