...................
----------------------------------------------------------------------
Ran 19 tests in 0.010s

OK
Name             Stmts   Miss Branch BrPart  Cover   Missing
------------------------------------------------------------
Collatz.py          39      8     18      2    75%   67, 78-95
TestCollatz.py      80      0      0      0   100%
------------------------------------------------------------
TOTAL              119      8     18      2    90%
